"DOTAAbilities"
{
	//=================================================================================================================
	// Earthshaker: Fissure (Lua version)
	//=================================================================================================================
	"earthshaker_fissure_lua"
	{
		// Ability Technical Aspect
		// base script folder	: scripts/vscripts
		// base texture folder	: resource/flash3/images/spellicons
		//-------------------------------------------------------------------------------------------------------------
		"BaseClass"						"ability_lua"
		"ScriptFile"					"bosses/EARTHSHAKER/earthshaker_fissure_lua/earthshaker_fissure_lua"
		"AbilityTextureName"			"earthshaker_fissure"
		"FightRecapLevel"				"1"
		"MaxLevel"						"4"
		"precache"
		{
			"soundfile"	"soundevents/game_sounds_heroes/game_sounds_earthshaker.vsndevts"
			//"particle"	"particles/units/heroes/hero_earthshaker/earthshaker_fissure.vpcf"
			"particle"	"particles/rubick_fissure.vpcf"
		}
		
		// Ability General
		//-------------------------------------------------------------------------------------------------------------
		"AbilityType"					"DOTA_ABILITY_TYPE_BASIC"
		"AbilityBehavior"				"DOTA_ABILITY_BEHAVIOR_NO_TARGET | DOTA_ABILITY_BEHAVIOR_IGNORE_BACKSWING"
		"AbilityUnitTargetType"			"DOTA_UNIT_TARGET_HERO | DOTA_UNIT_TARGET_BASIC"
		"AbilityUnitDamageType"			"DAMAGE_TYPE_MAGICAL"
		"SpellDispellableType"			"SPELL_DISPELLABLE_YES_STRONG"
		"SpellImmunityType"				"SPELL_IMMUNITY_ENEMIES_NO"

		// Ability Casting
		//-------------------------------------------------------------------------------------------------------------
		"AbilityCastRange"				"1100"
		"AbilityCastPoint"				"0.69"

		// Ability Resource
		//-------------------------------------------------------------------------------------------------------------
		"AbilityCooldown"				"18 17 16 15"
		"AbilityManaCost"				"125 140 155 170"

		// Damage
		//-------------------------------------------------------------------------------------------------------------
		"AbilityDamage"					"110 160 210 260"

		// Special
		//-------------------------------------------------------------------------------------------------------------
		"AbilityValues"
		{
			"fissure_range"				"1000"
			"fissure_duration"			"8.0"
			"fissure_radius"
			{
				"value"				"225"
				"affected_by_aoe_increase"	"1"
			}
			"stun_duration"				"1.0 1.25 1.5 1.75"
		}
	}
}