"DOTAAbilities"
{
	"penek"
	{
		"BaseClass"						"ability_lua"
		"ScriptFile"					"abilities/bosses/forest/fura.lua"
		"AbilityBehavior"				"DOTA_ABILITY_BEHAVIOR_POINT | DOTA_ABILITY_BEHAVIOR_AOE"
		"AbilityType"                   "DOTA_ABILITY_TYPE_ULTIMATE"
		"AbilityUnitTargetTeam"			"DOTA_UNIT_TARGET_TEAM_BOTH"
		"AbilityUnitTargetType"			"DOTA_UNIT_TARGET_HERO | DOTA_UNIT_TARGET_BASIC"
		"SpellImmunityType"				"SPELL_IMMUNITY_ENEMIES_NO"
		"SpellDispellableType"			"SPELL_DISPELLABLE_NO"
		"AbilityUnitDamageType"			"DAMAGE_TYPE_MAGICAL"
		"AbilityTextureName"			""
		"AbilityCastRange"				"200"
		"AbilityCastPoint"				"0.35"
		"AbilityCooldown"				"20"
		"AbilityManaCost"				"150"
		"AOERadius"						"600"
		
		"AbilityValues"
		{
			"base_damage"
			{
				"value"			"500"
			}
			"pct_damage"
			{
				"value"			"5"
			}
			"pct_heal"
			{
				"value"				"1"
			}
			"radius"
			{
				"value"				"600"
				"affected_by_aoe_increase"	"1"
			}
			"duration"
			{
				"value"				"6"
			}
		}
	}

	"furion_sprout_lua"
	{														
		"AbilityBehavior"				"DOTA_ABILITY_BEHAVIOR_UNIT_TARGET | DOTA_ABILITY_BEHAVIOR_POINT"
		"FightRecapLevel"				"1"
		"BaseClass"						"ability_lua"
		"AbilityTextureName"			"furion_sprout"
		"ScriptFile"					"abilities/bosses/forest/furion_sprout"
		
		"AbilityUnitTargetTeam"			"DOTA_UNIT_TARGET_TEAM_BOTH"
		"AbilityUnitTargetType"			"DOTA_UNIT_TARGET_HERO | DOTA_UNIT_TARGET_BASIC"
		"AbilityUnitTargetFlags"		"DOTA_UNIT_TARGET_FLAG_NOT_ANCIENTS"

		"AbilityCastRange"				"700"
		"AbilityCastPoint"				"0"
		"AbilityCooldown"				"10"
		"AbilityManaCost"				"30"
		
		"AbilityValues"
		{
			"vision_range"
			{
				"value"			"1000"
			}
			"duration"
			{
				"value"				"3"
			}
			"cast_range_tooltip"
			{
				"value"	"700"
			}
			"radius"
			{
				"value"				"150.0"		
				"affected_by_aoe_increase"	"1"
			}
		}
	}	
	
	"custom_forest"
	{
		"BaseClass"						"ability_datadriven"
		"AbilityBehavior"				"DOTA_ABILITY_BEHAVIOR_NO_TARGET"
		"AbilityUnitDamageType"			"DAMAGE_TYPE_MAGICAL"
		"AbilityUnitTargetTeam"			"DOTA_UNIT_TARGET_TEAM_ENEMY"
		"AbilityUnitTargetType"			"DOTA_UNIT_TARGET_HERO"
		"SpellImmunityType"				"SPELL_IMMUNITY_ENEMIES_NO"
		"AbilityCastPoint"				"0.0"
		"AbilityTextureName"			"naga_siren_rip_tide"
		"GameSoundsFile"				"soundevents/game_sounds_heroes/game_sounds_kunkka.vsndevts"
		
		"AbilityCooldown"				"15"
		
		"AbilityManaCost"				"50"

		"AbilityValues"
		{
			"damage"
			{
				"value"						"600"
			}
			"interval"
			{
				"value"						"0.4"
			}	
			"range"
			{
				"value"							"700"
			}
			"duration"
			{
				"value"						"6.0"
			}
			"delay"
			{
				"value"							"0.4"
			}
			"damage_radius"
			{
				"value"					"225"
				"affected_by_aoe_increase"	"1"
			}
			
		}
		
		"OnSpellStart"
		{
			"ApplyModifier"
			{
				"ModifierName"			"modifier_custom_forest"
				"Target"				"CASTER"
			}
		}

		"Modifiers"
		{
			"modifier_custom_forest"
			{
				"IsHidden"				"0"
				"Duration"				"%duration"
					
				"ThinkInterval"				"%interval"
				"OnIntervalThink"
				{
					"RunScript"
					{
						"ScriptFile"		"abilities/bosses/forest/custom_forest"
						"Function"			"custom_forest_boom"
					}
					"FireSound"
					{
						"EffectName"			"Hero_Leshrac.Split_Earth"
						"Target"				"TARGET"
					}
				}
			}
			"modifier_dummy"
			{
				"ThinkInterval"		"0.01"
				"OnIntervalThink"	
				{
					"Damage"
					{
						"Damage"		"2000"
						"Type"			"DAMAGE_TYPE_PURE"
						"Target"		"TARGET"
					}
				}
				"States"
				{
					"MODIFIER_STATE_NO_HEALTH_BAR"			"MODIFIER_STATE_VALUE_ENABLED"
					"MODIFIER_STATE_NO_UNIT_COLLISION"		"MODIFIER_STATE_VALUE_ENABLED"
					"MODIFIER_STATE_NOT_ON_MINIMAP"			"MODIFIER_STATE_VALUE_ENABLED"
					"MODIFIER_STATE_UNSELECTABLE"			"MODIFIER_STATE_VALUE_ENABLED"
					"MODIFIER_STATE_COMMAND_RESTRICTED"		"MODIFIER_STATE_VALUE_ENABLED"
				}
			}
		}
	}
	
"forest_seed"
	{
		"BaseClass"						"ability_lua"
		"AbilityTextureName"			"furion_sprout"
		"ScriptFile"					"abilities/bosses/forest/forest_seed"
		"AbilityBehavior"				"DOTA_ABILITY_BEHAVIOR_UNIT_TARGET | DOTA_ABILITY_BEHAVIOR_CHANNELLED | DOTA_ABILITY_BEHAVIOR_IGNORE_BACKSWING"
		"AbilityUnitTargetTeam"			"DOTA_UNIT_TARGET_TEAM_ENEMY"
		"AbilityUnitTargetType"			"DOTA_UNIT_TARGET_HERO | DOTA_UNIT_TARGET_BASIC"
		"AbilityUnitTargetFlags"		"DOTA_UNIT_TARGET_FLAG_MAGIC_IMMUNE_ENEMIES"
		"SpellImmunityType"				"SPELL_IMMUNITY_ENEMIES_YES"
		"SpellDispellableType"			"SPELL_DISPELLABLE_YES_STRONG"
		"AbilityUnitDamageType"			"DAMAGE_TYPE_MAGICAL"	
		"AbilityCastRange"				"460"
		"AbilityCooldown"				"10"
		"AbilityManaCost"				"200"
		
		"AbilityValues"{
			"duration" 				"3"	
			"tick" 					"0.5"	
			"damage" 				"250"	
		}
	}
}